0.05   0.  0   1.0000  1.0000  1.0000
0.0475528   0.0154508   1.4 1.0000  1.0000  1.0000
0.0404508   0.0293893   0   1.0000  1.0000  1.0000
0.05    0.  0   1.0000  1.0000  1.0000
0.0404508   0.0293893   0   1.0000  1.0000  1.0000
0.0475528   0.0154508   1.4 1.0000  1.0000  1.0000
0.0475528   0.0154508   1.4 1.0000  1.0000  1.0000
0.0404508   0.0293893   0   1.0000  1.0000  1.0000
0.0293893   0.0404508   1.4 1.0000  1.0000  1.0000
0.0475528   0.0154508   1.4 1.0000  1.0000  1.0000
0.0293893   0.0404508   1.4 1.0000  1.0000  1.0000
0.0404508   0.0293893   0   1.0000  1.0000  1.0000
0.0404508   0.0293893   0   1.0000  1.0000  1.0000
0.0293893   0.0404508   1.4 1.0000  1.0000  1.0000
0.0154508   0.0475528   0   1.0000  1.0000  1.0000
0.0404508   0.0293893   0   1.0000  1.0000  1.0000
0.0154508   0.0475528   0   1.0000  1.0000  1.0000
0.0293893   0.0404508   1.4 1.0000  1.0000  1.0000
0.0293893   0.0404508   1.4 1.0000  1.0000  1.0000
0.0154508   0.0475528   0   1.0000  1.0000  1.0000
0.  0.05    1.4 1.0000  1.0000  1.0000
0.0293893   0.0404508   1.4 1.0000  1.0000  1.0000
0.  0.05    1.4 1.0000  1.0000  1.0000
0.0154508   0.0475528   0   1.0000  1.0000  1.0000
0.0154508   0.0475528   0   1.0000  1.0000  1.0000
0.  0.05    1.4 1.0000  1.0000  1.0000
-0.0154508  0.0475528   0   1.0000  1.0000  1.0000
0.0154508   0.0475528   0   1.0000  1.0000  1.0000
-0.0154508  0.0475528   0   1.0000  1.0000  1.0000
0.  0.05    1.4 1.0000  1.0000  1.0000
0.  0.05    1.4 1.0000  1.0000  1.0000
-0.0154508  0.0475528   0   1.0000  1.0000  1.0000
-0.0293893  0.0404508   1.4 1.0000  1.0000  1.0000
0.  0.05    1.4 1.0000  1.0000  1.0000
-0.0293893  0.0404508   1.4 1.0000  1.0000  1.0000
-0.0154508  0.0475528   0   1.0000  1.0000  1.0000
-0.0154508  0.0475528   0   1.0000  1.0000  1.0000
-0.0293893  0.0404508   1.4 1.0000  1.0000  1.0000
-0.0404508  0.0293893   0   1.0000  1.0000  1.0000
-0.0154508  0.0475528   0   1.0000  1.0000  1.0000
-0.0404508  0.0293893   0   1.0000  1.0000  1.0000
-0.0293893  0.0404508   1.4 1.0000  1.0000  1.0000
-0.0293893  0.0404508   1.4 1.0000  1.0000  1.0000
-0.0404508  0.0293893   0   1.0000  1.0000  1.0000
-0.0475528  0.0154508   1.4 1.0000  1.0000  1.0000
-0.0293893  0.0404508   1.4 1.0000  1.0000  1.0000
-0.0475528  0.0154508   1.4 1.0000  1.0000  1.0000
-0.0404508  0.0293893   0   1.0000  1.0000  1.0000
-0.0404508  0.0293893   0   1.0000  1.0000  1.0000
-0.0475528  0.0154508   1.4 1.0000  1.0000  1.0000
-0.05   0.  0   1.0000  1.0000  1.0000
-0.0404508  0.0293893   0   1.0000  1.0000  1.0000
-0.05   0.  0   1.0000  1.0000  1.0000
-0.0475528  0.0154508   1.4 1.0000  1.0000  1.0000
-0.0475528  0.0154508   1.4 1.0000  1.0000  1.0000
-0.05   0.  0   1.0000  1.0000  1.0000
-0.0475528  -0.0154508  1.4 1.0000  1.0000  1.0000
-0.0475528  0.0154508   1.4 1.0000  1.0000  1.0000
-0.0475528  -0.0154508  1.4 1.0000  1.0000  1.0000
-0.05   0.  0   1.0000  1.0000  1.0000
-0.05   0.  0   1.0000  1.0000  1.0000
-0.0475528  -0.0154508  1.4 1.0000  1.0000  1.0000
-0.0404508  -0.0293893  0   1.0000  1.0000  1.0000
-0.05   0.  0   1.0000  1.0000  1.0000
-0.0404508  -0.0293893  0   1.0000  1.0000  1.0000
-0.0475528  -0.0154508  1.4 1.0000  1.0000  1.0000
-0.0475528  -0.0154508  1.4 1.0000  1.0000  1.0000
-0.0404508  -0.0293893  0   1.0000  1.0000  1.0000
-0.0293893  -0.0404508  1.4 1.0000  1.0000  1.0000
-0.0475528  -0.0154508  1.4 1.0000  1.0000  1.0000
-0.0293893  -0.0404508  1.4 1.0000  1.0000  1.0000
-0.0404508  -0.0293893  0   1.0000  1.0000  1.0000
-0.0404508  -0.0293893  0   1.0000  1.0000  1.0000
-0.0293893  -0.0404508  1.4 1.0000  1.0000  1.0000
-0.0154508  -0.0475528  0   1.0000  1.0000  1.0000
-0.0404508  -0.0293893  0   1.0000  1.0000  1.0000
-0.0154508  -0.0475528  0   1.0000  1.0000  1.0000
-0.0293893  -0.0404508  1.4 1.0000  1.0000  1.0000
-0.0293893  -0.0404508  1.4 1.0000  1.0000  1.0000
-0.0154508  -0.0475528  0   1.0000  1.0000  1.0000
0.  -0.05   1.4 1.0000  1.0000  1.0000
-0.0293893  -0.0404508  1.4 1.0000  1.0000  1.0000
0.  -0.05   1.4 1.0000  1.0000  1.0000
-0.0154508  -0.0475528  0   1.0000  1.0000  1.0000
-0.0154508  -0.0475528  0   1.0000  1.0000  1.0000
0.  -0.05   1.4 1.0000  1.0000  1.0000
0.0154508   -0.0475528  0   1.0000  1.0000  1.0000
-0.0154508  -0.0475528  0   1.0000  1.0000  1.0000
0.0154508   -0.0475528  0   1.0000  1.0000  1.0000
0.  -0.05   1.4 1.0000  1.0000  1.0000
0.  -0.05   1.4 1.0000  1.0000  1.0000
0.0154508   -0.0475528  0   1.0000  1.0000  1.0000
0.0293893   -0.0404508  1.4 1.0000  1.0000  1.0000
0.  -0.05   1.4 1.0000  1.0000  1.0000
0.0293893   -0.0404508  1.4 1.0000  1.0000  1.0000
0.0154508   -0.0475528  0   1.0000  1.0000  1.0000
0.0154508   -0.0475528  0   1.0000  1.0000  1.0000
0.0293893   -0.0404508  1.4 1.0000  1.0000  1.0000
0.0404508   -0.0293893  0   1.0000  1.0000  1.0000
0.0154508   -0.0475528  0   1.0000  1.0000  1.0000
0.0404508   -0.0293893  0   1.0000  1.0000  1.0000
0.0293893   -0.0404508  1.4 1.0000  1.0000  1.0000
0.0293893   -0.0404508  1.4 1.0000  1.0000  1.0000
0.0404508   -0.0293893  0   1.0000  1.0000  1.0000
0.0475528   -0.0154508  1.4 1.0000  1.0000  1.0000
0.0293893   -0.0404508  1.4 1.0000  1.0000  1.0000
0.0475528   -0.0154508  1.4 1.0000  1.0000  1.0000
0.0404508   -0.0293893  0   1.0000  1.0000  1.0000
0.0404508   -0.0293893  0   1.0000  1.0000  1.0000
0.0475528   -0.0154508  1.4 1.0000  1.0000  1.0000
0.05    0.  0   1.0000  1.0000  1.0000
0.0404508   -0.0293893  0   1.0000  1.0000  1.0000
0.05    0.  0   1.0000  1.0000  1.0000
0.0475528   -0.0154508  1.4 1.0000  1.0000  1.0000
0.0475528   -0.0154508  1.4 1.0000  1.0000  1.0000
0.05    0.  0   1.0000  1.0000  1.0000
0.0475528   0.0154508   1.4 1.0000  1.0000  1.0000
0.0475528   -0.0154508  1.4 1.0000  1.0000  1.0000
0.0475528   0.0154508   1.4 1.0000  1.0000  1.0000
0.05    0.  0   1.0000  1.0000  1.0000
0.05    0.  0   1.0000  1.0000  1.0000
0.0475528   0.0154508   1.4 1.0000  1.0000  1.0000
0.0404508   0.0293893   0   1.0000  1.0000  1.0000
0.05    0.  0   1.0000  1.0000  1.0000
0.0404508   0.0293893   0   1.0000  1.0000  1.0000
0.0475528   0.0154508   1.4 1.0000  1.0000  1.0000
0.0475528   0.0154508   1.4 1.0000  1.0000  1.0000
0.0404508   0.0293893   0   1.0000  1.0000  1.0000
0.0293893   0.0404508   1.4 1.0000  1.0000  1.0000
0.0475528   0.0154508   1.4 1.0000  1.0000  1.0000
0.0293893   0.0404508   1.4 1.0000  1.0000  1.0000
0.0404508   0.0293893   0   1.0000  1.0000  1.0000

-0.055 -0.055  0   0.2 0.023   0.019
0.045   -0.055  0   0.2 0.023   0.019
-0.055  0.045   0   0.2 0.023   0.019
-0.055  -0.055  0   0.2 0.023   0.019
0.045   -0.055  0   0.2 0.023   0.019
-0.055  0.045   0   0.2 0.023   0.019
0.045   0.045   0   0.2 0.023   0.019
0.045   -0.055  0   0.2 0.023   0.019
-0.055  0.045   0   0.2 0.023   0.019
0.045   0.045   0   0.2 0.023   0.019
0.045   -0.055  0   0.2 0.023   0.019
-0.055  0.045   0   0.2 0.023   0.019
-0.055  -0.055  0   0.2 0.023   0.019
0.045   -0.055  0   0.2 0.023   0.019
-0.055  -0.055  -0.028  0.2 0.023   0.019
-0.055  -0.055  0   0.2 0.023   0.019
-0.055  -0.055  -0.028  0.2 0.023   0.019
0.045   -0.055  0   0.2 0.023   0.019
0.045   -0.055  -0.028  0.2 0.023   0.019
0.045   -0.055  0   0.2 0.023   0.019
-0.055  -0.055  -0.028  0.2 0.023   0.019
0.045   -0.055  -0.028  0.2 0.023   0.019
-0.055  -0.055  -0.028  0.2 0.023   0.019
0.045   -0.055  0   0.2 0.023   0.019
-0.055  -0.055  0   0.2 0.023   0.019
-0.055  0.045   0   0.2 0.023   0.019
-0.055  -0.055  -0.028  0.2 0.023   0.019
-0.055  -0.055  0   0.2 0.023   0.019
-0.055  -0.055  -0.028  0.2 0.023   0.019
0.045   -0.055  0   0.2 0.023   0.019
-0.055  0.045   -0.028  0.2 0.023   0.019
-0.055  0.045   0   0.2 0.023   0.019
-0.055  -0.055  -0.028  0.2 0.023   0.019
-0.055  0.045   -0.028  0.2 0.023   0.019
-0.055  -0.055  -0.028  0.2 0.023   0.019
0.045   -0.055  0   0.2 0.023   0.019
0.045   0.045   -0.028  0.2 0.023   0.019
0.045   -0.055  -0.028  0.2 0.023   0.019
-0.055  0.045   -0.028  0.2 0.023   0.019
0.045   0.045   -0.028  0.2 0.023   0.019
-0.055  0.045   -0.028  0.2 0.023   0.019
0.045   -0.055  -0.028  0.2 0.023   0.019
0.045   -0.055  -0.028  0.2 0.023   0.019
-0.055  0.045   -0.028  0.2 0.023   0.019
-0.055  -0.055  -0.028  0.2 0.023   0.019
-0.055  0.045   -0.028  0.2 0.023   0.019
0.045   -0.055  -0.028  0.2 0.023   0.019
-0.055  -0.055  -0.028  0.2 0.023   0.019
0.045   0.045   -0.028  0.2 0.023   0.019
0.045   0.045   0   0.2 0.023   0.019
-0.055  0.045   -0.028  0.2 0.023   0.019
0.045   0.045   -0.028  0.2 0.023   0.019
-0.055  0.045   -0.028  0.2 0.023   0.019
0.045   0.045   0   0.2 0.023   0.019
-0.055  0.045   0   0.2 0.023   0.019
0.045   0.045   0   0.2 0.023   0.019
-0.055  0.045   -0.028  0.2 0.023   0.019
-0.055  0.045   0   0.2 0.023   0.019
-0.055  0.045   -0.028  0.2 0.023   0.019
0.045   0.045   0   0.2 0.023   0.019
-0.055  -0.055  1.4 0.2 0.023   0.019
0.055   -0.055  1.4 0.2 0.023   0.019
-0.055  0.055   1.4 0.2 0.023   0.019
-0.055  -0.055  1.4 0.2 0.023   0.019
0.055   -0.055  1.4 0.2 0.023   0.019
-0.055  0.055   1.4 0.2 0.023   0.019
0.055   0.055   1.4 0.2 0.023   0.019
0.055   -0.055  1.4 0.2 0.023   0.019
-0.055  0.055   1.4 0.2 0.023   0.019
0.055   0.055   1.4 0.2 0.023   0.019
0.055   -0.055  1.4 0.2 0.023   0.019
-0.055  0.055   1.4 0.2 0.023   0.019
-0.055  -0.055  1.4 0.2 0.023   0.019
0.055   -0.055  1.4 0.2 0.023   0.019
-0.055  -0.055  1.428   0.2 0.023   0.019
-0.055  -0.055  1.4 0.2 0.023   0.019
-0.055  -0.055  1.428   0.2 0.023   0.019
0.055   -0.055  1.4 0.2 0.023   0.019
0.055   -0.055  1.428   0.2 0.023   0.019
0.055   -0.055  1.4 0.2 0.023   0.019
-0.055  -0.055  1.428   0.2 0.023   0.019
0.055   -0.055  1.428   0.2 0.023   0.019
-0.055  -0.055  1.428   0.2 0.023   0.019
0.055   -0.055  1.4 0.2 0.023   0.019
-0.055  -0.055  1.4 0.2 0.023   0.019
-0.055  0.055   1.4 0.2 0.023   0.019
-0.055  -0.055  1.428   0.2 0.023   0.019
-0.055  -0.055  1.4 0.2 0.023   0.019
-0.055  -0.055  1.428   0.2 0.023   0.019
0.055   -0.055  1.4 0.2 0.023   0.019
-0.055  0.055   1.428   0.2 0.023   0.019
-0.055  0.055   1.4 0.2 0.023   0.019
-0.055  -0.055  1.428   0.2 0.023   0.019
-0.055  0.055   1.428   0.2 0.023   0.019
-0.055  -0.055  1.428   0.2 0.023   0.019
0.055   -0.055  1.4 0.2 0.023   0.019
0.055   0.055   1.428   0.2 0.023   0.019
0.055   -0.055  1.428   0.2 0.023   0.019
-0.055  0.055   1.428   0.2 0.023   0.019
0.055   0.055   1.428   0.2 0.023   0.019
-0.055  0.055   1.428   0.2 0.023   0.019
0.055   -0.055  1.428   0.2 0.023   0.019
0.055   -0.055  1.428   0.2 0.023   0.019
-0.055  0.055   1.428   0.2 0.023   0.019
-0.055  -0.055  1.428   0.2 0.023   0.019
-0.055  0.055   1.428   0.2 0.023   0.019
0.055   -0.055  1.428   0.2 0.023   0.019
-0.055  -0.055  1.428   0.2 0.023   0.019
0.055   0.055   1.428   0.2 0.023   0.019
0.055   0.055   1.4 0.2 0.023   0.019
-0.055  0.055   1.428   0.2 0.023   0.019
0.055   0.055   1.428   0.2 0.023   0.019
-0.055  0.055   1.428   0.2 0.023   0.019
0.055   0.055   1.4 0.2 0.023   0.019
-0.055  0.055   1.4 0.2 0.023   0.019
0.055   0.055   1.4 0.2 0.023   0.019
-0.055  0.055   1.428   0.2 0.023   0.019
-0.055  0.055   1.4 0.2 0.023   0.019
-0.055  0.055   1.428   0.2 0.023   0.019
0.055   0.055   1.4 0.2 0.023   0.019
-0.055  -0.055  -0.028  0.2 0.023   0.019
0.055   -0.055  -0.028  0.2 0.023   0.019
-0.055  -0.08   -0.028  0.2 0.023   0.019
-0.055  -0.055  -0.028  0.2 0.023   0.019
0.055   -0.055  -0.028  0.2 0.023   0.019
-0.055  -0.08   -0.028  0.2 0.023   0.019
0.055   -0.08   -0.028  0.2 0.023   0.019
0.055   -0.055  -0.028  0.2 0.023   0.019
-0.055  -0.08   -0.028  0.2 0.023   0.019
0.055   -0.08   -0.028  0.2 0.023   0.019
0.055   -0.055  -0.028  0.2 0.023   0.019
-0.055  -0.08   -0.028  0.2 0.023   0.019
-0.055  -0.055  -0.028  0.2 0.023   0.019
0.055   -0.055  -0.028  0.2 0.023   0.019
-0.055  -0.055  1.428   0.2 0.023   0.019
-0.055  -0.055  -0.028  0.2 0.023   0.019
-0.055  -0.055  1.428   0.2 0.023   0.019
0.055   -0.055  -0.028  0.2 0.023   0.019
0.055   -0.055  1.428   0.2 0.023   0.019
0.055   -0.055  -0.028  0.2 0.023   0.019
-0.055  -0.055  1.428   0.2 0.023   0.019
0.055   -0.055  1.428   0.2 0.023   0.019
-0.055  -0.055  1.428   0.2 0.023   0.019
0.055   -0.055  -0.028  0.2 0.023   0.019
-0.055  -0.055  -0.028  0.2 0.023   0.019
-0.055  -0.08   -0.028  0.2 0.023   0.019
-0.055  -0.055  1.428   0.2 0.023   0.019
-0.055  -0.055  -0.028  0.2 0.023   0.019
-0.055  -0.055  1.428   0.2 0.023   0.019
0.055   -0.055  -0.028  0.2 0.023   0.019
-0.055  -0.08   1.428   0.2 0.023   0.019
-0.055  -0.08   -0.028  0.2 0.023   0.019
-0.055  -0.055  1.428   0.2 0.023   0.019
-0.055  -0.08   1.428   0.2 0.023   0.019
-0.055  -0.055  1.428   0.2 0.023   0.019
0.055   -0.055  -0.028  0.2 0.023   0.019
0.055   -0.08   1.428   0.2 0.023   0.019
0.055   -0.055  1.428   0.2 0.023   0.019
-0.055  -0.08   1.428   0.2 0.023   0.019
0.055   -0.08   1.428   0.2 0.023   0.019
-0.055  -0.08   1.428   0.2 0.023   0.019
0.055   -0.055  1.428   0.2 0.023   0.019
0.055   -0.055  1.428   0.2 0.023   0.019
-0.055  -0.08   1.428   0.2 0.023   0.019
-0.055  -0.055  1.428   0.2 0.023   0.019
-0.055  -0.08   1.428   0.2 0.023   0.019
0.055   -0.055  1.428   0.2 0.023   0.019
-0.055  -0.055  1.428   0.2 0.023   0.019
0.055   -0.08   1.428   0.2 0.023   0.019
0.055   -0.08   -0.028  0.2 0.023   0.019
-0.055  -0.08   1.428   0.2 0.023   0.019
0.055   -0.08   1.428   0.2 0.023   0.019
-0.055  -0.08   1.428   0.2 0.023   0.019
0.055   -0.08   -0.028  0.2 0.023   0.019
-0.055  -0.08   -0.028  0.2 0.023   0.019
0.055   -0.08   -0.028  0.2 0.023   0.019
-0.055  -0.08   1.428   0.2 0.023   0.019
-0.055  -0.08   -0.028  0.2 0.023   0.019
-0.055  -0.08   1.428   0.2 0.023   0.019
0.055   -0.08   -0.028  0.2 0.023   0.019

